…
#> x dplyr::filter() masks stats::filter()
#> x dplyr::lag()    masks stats::lag()
# Vector of distances
dist = units::set_units(c(10, 20, 30, 40, 50), m)
# Spatial join among visibility map and rings
rings <- genestdwp::viring(x=visib, d = dist)
# Carcasses
pto_carcass
#> Simple feature collection with 54 features and 4 fields
#> geometry type:  POINT
#> dimension:      XY
#> bbox:           xmin: 128938.2 ymin: 267503.5 xmax: 133070.4 ymax: 276255.4
#> epsg (SRID):    20790
#> proj4string:    +proj=tmerc +lat_0=39.66666666666666 +lon_0=1 +k=1 +x_0=200000 +y_0=300000 +ellps=intl +towgs84=-304.046,-60.576,103.64,0,0,0,0 +pm=lisbon +units=m +no_defs
#> # A tibble: 54 x 5
#>       ag especie           grupo tamanho            geometry
#>  * <dbl> <chr>             <chr> <chr>           <POINT [m]>
#>  1     4 Accipiter nisus   Ave   grande  (129004.4 267938.1)
#>  2    33 Falco tinnunculus Ave   grande  (130302.3 270878.2)
#>  3     2 NI                Ave   grande  (128938.2 267503.5)
#>  4    17 Accipiter nisus?  Ave   grande  (133070.4 276255.4)
#>  5    15 Falco tinnunculus Ave   grande  (130588.9 270152.2)
#>  6    20 Falco tinnunculus Ave   grande  (131489.7 273364.7)
#>  7     1 Falco tinnunculus Ave   grande  (129293.7 268825.4)
#>  8    18 Falco tinnunculus Ave   grande  (132627.1 275476.3)
#>  9     1 Falco tinnunculus Ave   grande      (129281 268825)
#> 10    11 NI Corvideo       Ave   grande  (129573.4 269429.5)
#> # ... with 44 more rows
…
#> [1] "Attention!"
#> # A tibble: 8 x 2
#>      ag visib
#> * <dbl> <chr>
#> 1    15 0    
#> 2     1 0    
#> 3     1 0    
#> 4     9 0    
#> 5    28 0    
#> 6    30 0    
#> 7    20 0    
#> 8    31 0    
#> [1] "Found n = 8 carcasses on visibility = 0! Assuming value of nearest visible area"
dfdwp
#> # A tibble: 37 x 2
#>       ag   dwp
#>    <dbl> <dbl>
#>  1     1 0.401
#>  2     2 0.440
#>  3     3 0.476
#>  4     4 0.540
#>  5     5 0.513
#>  6     6 0.690
#>  7     7 0.569
#>  8     8 0.435
#>  9     9 0.471
#> 10    10 0.410
#> # ... with 27 more rows
…
